{
  "project_info": {
    "project_number": "416425879758",
    "firebase_url": "https://sanbercode-89b39.firebaseio.com",
    "project_id": "sanbercode-89b39",
    "storage_bucket": "sanbercode-89b39.appspot.com"
  },
  "client": [
    {
      "client_info": {
        "mobilesdk_app_id": "1:416425879758:android:5827555e6cd5686409889f",
        "android_client_info": {
          "package_name": "com.aas.movieapp"
        }
      },
      "oauth_client": [
        {
          "client_id": "416425879758-ph57clcbj5qqppf4b14bfvj18t1fio9r.apps.googleusercontent.com",
          "client_type": 3
        }
      ],
      "api_key": [
        {
          "current_key": "AIzaSyDlh63LiTWtTI0aUSB_uxEPJ3Hh7JValbU"
        }
      ],
      "services": {
        "appinvite_service": {
          "other_platform_oauth_client": [
            {
              "client_id": "416425879758-ph57clcbj5qqppf4b14bfvj18t1fio9r.apps.googleusercontent.com",
              "client_type": 3
            }
          ]
        }
      }
    },
    {
      "client_info": {
        "mobilesdk_app_id": "1:416425879758:android:1ce7b16b8cc3f8d609889f",
        "android_client_info": {
          "package_name": "com.aas.sanbercodeapp"
        }
      },
      "oauth_client": [
        {
          "client_id": "416425879758-l18u72rv1rahdb7rb85jef3n49doqgpq.apps.googleusercontent.com",
          "client_type": 1,
          "android_info": {
            "package_name": "com.aas.sanbercodeapp",
            "certificate_hash": "5e8f16062ea3cd2c4a0d547876baa6f38cabf625"
          }
        },
        {
          "client_id": "416425879758-ph57clcbj5qqppf4b14bfvj18t1fio9r.apps.googleusercontent.com",
          "client_type": 3
        }
      ],
      "api_key": [
        {
          "current_key": "AIzaSyDlh63LiTWtTI0aUSB_uxEPJ3Hh7JValbU"
        }
      ],
      "services": {
        "appinvite_service": {
          "other_platform_oauth_client": [
            {
              "client_id": "416425879758-ph57clcbj5qqppf4b14bfvj18t1fio9r.apps.googleusercontent.com",
              "client_type": 3
            }
          ]
        }
      }
    }
  ],
  "configuration_version": "1"
}